Scan a CRAN package for GDAL-readable files — scan_package • vsils
…
The returned dsn values can be opened directly with GDAL-based tools
(e.g. new(gdalraster::GDALVector, ), new(gdalraster::GDALRaster, ), terra::vect(),
terra::rast(), sf::read_sf()).

Some false positives may occur (e.g. CSV files detected as spatial, PNG
logos, orphan shapefile sidecars). The XYZ driver in particular may
incorrectly match spatial weights files (.gal, .gwt).

    Examples

scan_package("gdalraster")
#> # A tibble: 31 × 3
#>    package    driver      dsn                                                   
#>    <chr>      <chr>       <chr>                                                 
#>  1 gdalraster CSV         /vsitar//vsicurl/https://cran.rstudio.com/src/contrib…
#>  2 gdalraster CSV         /vsitar//vsicurl/https://cran.rstudio.com/src/contrib…
#>  3 gdalraster CSV         /vsitar//vsicurl/https://cran.rstudio.com/src/contrib…
#>  4 gdalraster CSV         /vsitar//vsicurl/https://cran.rstudio.com/src/contrib…
#>  5 gdalraster netCDF      /vsitar//vsicurl/https://cran.rstudio.com/src/contrib…
#>  6 gdalraster GTiff       /vsitar//vsicurl/https://cran.rstudio.com/src/contrib…
#>  7 gdalraster GTiff       /vsitar//vsicurl/https://cran.rstudio.com/src/contrib…
#>  8 gdalraster OpenFileGDB /vsitar//vsicurl/https://cran.rstudio.com/src/contrib…
#>  9 gdalraster GPKG        /vsitar//vsicurl/https://cran.rstudio.com/src/contrib…
#> 10 gdalraster GTiff       /vsitar//vsicurl/https://cran.rstudio.com/src/contrib…
#> # ℹ 21 more rows
…
